<?xml version="1.0" encoding="utf-8"?>
<!-- Generator: Adobe Illustrator 24.0.1, SVG Export Plug-In . SVG Version: 6.00 Build 0)  -->
<svg version="1.1" id="Layer_1" xmlns="http://www.w3.org/2000/svg" xmlns:xlink="http://www.w3.org/1999/xlink" x="0px" y="0px"
	 viewBox="0 0 26.6 45.5" style="enable-background:new 0 0 26.6 45.5;" xml:space="preserve">
<style type="text/css">
	.st0{fill:#FFFFFF;}
</style>
<g>
	<g>
		<g>
			<g>
				<path class="st0" d="M13.3,41c-1.3,0-2.4-1.1-2.4-2.4c0-1.3,1.1-2.4,2.4-2.4c1.3,0,2.4,1.1,2.4,2.4C15.7,39.9,14.6,41,13.3,41z
					 M13.3,37.3c-0.7,0-1.3,0.6-1.3,1.3c0,0.7,0.6,1.3,1.3,1.3c0.7,0,1.3-0.6,1.3-1.3C14.6,37.9,14,37.3,13.3,37.3z"/>
			</g>
		</g>
	</g>
	<path class="st0" d="M26.6,44.7V0.8c0-0.4-0.4-0.8-0.8-0.8h-25C0.4,0,0,0.4,0,0.8v43.8c0,0.4,0.4,0.8,0.8,0.8h25
		C26.3,45.5,26.6,45.1,26.6,44.7 M1.6,1.6h23.3v42.2H1.6V1.6z"/>
	<path class="st0" d="M16.1,5.5h-5.5c-0.5,0-0.8,0.4-0.8,0.8c0,0.4,0.4,0.8,0.8,0.8h5.5c0.4,0,0.8-0.4,0.8-0.8
		C16.9,5.8,16.5,5.5,16.1,5.5z"/>
</g>
</svg>
