<?xml version="1.0" encoding="utf-8"?>
<!-- Generator: Adobe Illustrator 24.0.1, SVG Export Plug-In . SVG Version: 6.00 Build 0)  -->
<svg version="1.1" id="Layer_1" xmlns="http://www.w3.org/2000/svg" xmlns:xlink="http://www.w3.org/1999/xlink" x="0px" y="0px"
	 viewBox="0 0 41.4 41.4" style="enable-background:new 0 0 41.4 41.4;" xml:space="preserve">
<style type="text/css">
	.st0{fill:#FFFFFF;}
</style>
<g>
	<path class="st0" d="M40.7,0c-8.7,0-17.5,1.4-20,4.1C18.2,1.4,9.4,0,0.7,0C0.3,0,0,0.3,0,0.7v35c0,0.4,0.3,0.7,0.7,0.7
		c11.9,0,19.2,2.5,19.2,4.3c0,0.4,0.3,0.7,0.7,0.7c0.4,0,0.7-0.3,0.7-0.7c0-1.8,7.3-4.3,19.2-4.3c0.4,0,0.7-0.3,0.7-0.7v-35
		C41.4,0.3,41.1,0,40.7,0z M20,38.4C16.8,36.2,9.2,35,1.5,35V1.5C13,1.6,20,4,20,5.7V38.4z M39.9,35c-7.7,0.1-15.4,1.2-18.5,3.4V5.7
		c0-1.7,7-4.1,18.5-4.2V35z"/>
</g>
</svg>
