<?xml version="1.0" encoding="utf-8"?>
<!-- Generator: Adobe Illustrator 24.0.1, SVG Export Plug-In . SVG Version: 6.00 Build 0)  -->
<svg version="1.1" id="Calque_1" xmlns="http://www.w3.org/2000/svg" xmlns:xlink="http://www.w3.org/1999/xlink" x="0px" y="0px"
	 viewBox="0 0 131 138.7" style="enable-background:new 0 0 131 138.7;" xml:space="preserve">
<style type="text/css">
	.st0{fill:#FFFFFF;}
</style>
<g>
	<polygon class="st0" points="78.7,74.3 65.5,46.6 53.5,74.3 	"/>
	<path class="st0" d="M65,0L0.1,23.7l9.5,84l55.3,31l54.6-30.6l11.3-84.4L65,0z M92.7,105.9l-9.4-20.6H47.7l-8.3,20.6H25.6l39.9-87
		l39.9,87H92.7z"/>
</g>
</svg>
