<?xml version="1.0" encoding="UTF-8"?>
<svg xmlns="http://www.w3.org/2000/svg" xmlns:xlink="http://www.w3.org/1999/xlink" width="27px" height="40px" viewBox="0 0 27 40" version="1.1">
<g id="surface1">
<path style=" stroke:none;fill-rule:nonzero;fill:rgb(100%,100%,100%);fill-opacity:1;" d="M 26.828125 35.769531 C 26.949219 36.03125 27.011719 36.300781 27.011719 36.570312 C 27.011719 36.941406 26.898438 37.289062 26.691406 37.621094 C 26.480469 37.941406 26.179688 38.191406 25.800781 38.359375 L 24.019531 39.148438 C 23.320312 39.449219 22.628906 39.660156 21.929688 39.800781 C 21.230469 39.941406 20.53125 40 19.808594 40 C 18.660156 40 17.53125 39.820312 16.410156 39.460938 C 15.289062 39.101562 14.21875 38.589844 13.199219 37.921875 C 12.179688 37.25 11.21875 36.441406 10.320312 35.488281 C 9.421875 34.539062 8.621094 33.480469 7.910156 32.308594 C 7.460938 31.660156 6.980469 30.921875 6.488281 30.089844 C 6.070312 29.378906 5.589844 28.539062 5.039062 27.550781 C 4.5 26.558594 3.949219 25.46875 3.398438 24.261719 C 2.839844 23.058594 2.390625 22 2.058594 21.101562 C 1.730469 20.199219 1.46875 19.449219 1.289062 18.859375 C 1.078125 18.160156 0.929688 17.570312 0.851562 17.070312 C 0.558594 16.148438 0.339844 15.230469 0.210938 14.320312 C 0.0703125 13.410156 0 12.5 0 11.609375 C 0 10.441406 0.121094 9.320312 0.371094 8.238281 C 0.621094 7.160156 1 6.148438 1.519531 5.21875 C 2.039062 4.289062 2.691406 3.460938 3.480469 2.71875 C 4.269531 1.980469 5.210938 1.390625 6.289062 0.929688 L 8.050781 0.171875 C 8.320312 0.0585938 8.601562 0 8.878906 0 C 9.269531 0 9.640625 0.101562 9.96875 0.308594 C 10.308594 0.519531 10.558594 0.800781 10.730469 1.160156 L 14.109375 8.398438 C 14.230469 8.660156 14.289062 8.921875 14.289062 9.191406 C 14.289062 9.578125 14.179688 9.929688 13.96875 10.261719 C 13.761719 10.589844 13.460938 10.828125 13.078125 11 L 9.601562 12.511719 C 9.140625 12.710938 8.789062 13 8.539062 13.390625 C 8.300781 13.78125 8.171875 14.191406 8.171875 14.640625 C 8.171875 14.980469 8.238281 15.300781 8.371094 15.589844 L 14.078125 27.878906 C 14.300781 28.351562 14.609375 28.699219 15.011719 28.921875 C 15.398438 29.140625 15.828125 29.25 16.300781 29.25 C 16.621094 29.25 16.941406 29.179688 17.269531 29.050781 L 20.75 27.539062 C 21.019531 27.429688 21.300781 27.371094 21.578125 27.371094 C 21.960938 27.371094 22.328125 27.46875 22.671875 27.679688 C 23.011719 27.890625 23.269531 28.171875 23.441406 28.519531 Z M 26.828125 35.769531 "/>
</g>
</svg>
