<?xml version="1.0" encoding="UTF-8"?>
<svg xmlns="http://www.w3.org/2000/svg" xmlns:xlink="http://www.w3.org/1999/xlink" width="35px" height="37px" viewBox="0 0 37 39" version="1.1">
<g id="surface1">
<path style=" stroke:none;fill-rule:nonzero;fill:rgb(100%,100%,100%);fill-opacity:1;" d="M 32.789062 23.449219 L 26.210938 23.449219 C 28.96875 19.121094 30.371094 15.191406 30.371094 11.738281 C 30.371094 5.261719 25.050781 -0.0117188 18.511719 -0.0117188 C 11.96875 -0.0117188 6.648438 5.261719 6.648438 11.738281 C 6.648438 15.179688 8.050781 19.109375 10.808594 23.449219 L 4.230469 23.449219 L 0 39 L 37 39 Z M 18.5 6.28125 C 21.890625 6.28125 24.648438 9.011719 24.648438 12.371094 C 24.648438 15.730469 21.890625 18.460938 18.5 18.460938 C 15.109375 18.460938 12.351562 15.730469 12.351562 12.371094 C 12.351562 9.019531 15.109375 6.28125 18.5 6.28125 Z M 5.988281 25.738281 L 12.351562 25.738281 C 14.339844 28.488281 16.269531 30.648438 18.5 32.828125 C 20.671875 30.710938 22.550781 28.648438 24.648438 25.738281 L 31.011719 25.738281 L 33.988281 36.71875 L 3.011719 36.71875 Z M 5.988281 25.738281 "/>
</g>
</svg>
