<?xml version="1.0" encoding="utf-8"?>
<!-- Generator: Adobe Illustrator 24.0.1, SVG Export Plug-In . SVG Version: 6.00 Build 0)  -->
<svg version="1.1" id="Layer_1" xmlns="http://www.w3.org/2000/svg" xmlns:xlink="http://www.w3.org/1999/xlink" x="0px" y="0px"
	 viewBox="0 0 128 66" style="enable-background:new 0 0 128 66;" xml:space="preserve">
<style type="text/css">
	.st0{fill:#FFFFFF;}
</style>
<g>
	<g>
		<path class="st0" d="M0.16,53.11V36.18h14.13c1.03,0,1.88,0.09,2.55,0.27c0.68,0.18,1.21,0.49,1.61,0.92c0.4,0.43,0.68,1,0.85,1.7
			c0.17,0.7,0.26,1.56,0.26,2.6v5.95c0,1.03-0.09,1.9-0.26,2.61c-0.17,0.71-0.46,1.27-0.85,1.7c-0.4,0.43-0.94,0.73-1.61,0.91
			c-0.68,0.18-1.53,0.27-2.55,0.27H0.16z M16.27,41.69c0-0.84-0.15-1.41-0.44-1.71c-0.29-0.3-0.81-0.46-1.54-0.46H3.48v10.26h10.81
			c0.75,0,1.26-0.15,1.55-0.44c0.28-0.3,0.43-0.86,0.43-1.7V41.69z"/>
		<path class="st0" d="M22.52,53.11V36.18h3.29v16.93H22.52z"/>
		<path class="st0" d="M44.46,53.11l-0.1-2.07c-0.05,0.25-0.16,0.49-0.33,0.74c-0.17,0.25-0.39,0.47-0.66,0.66
			c-0.27,0.2-0.59,0.36-0.96,0.48s-0.8,0.18-1.27,0.18h-7.13c-1.04,0-1.9-0.09-2.57-0.26c-0.68-0.17-1.21-0.47-1.6-0.9
			c-0.39-0.43-0.66-0.99-0.82-1.69c-0.15-0.7-0.23-1.58-0.23-2.64v-5.95c0-1.02,0.08-1.87,0.23-2.57c0.15-0.7,0.43-1.26,0.82-1.7
			c0.39-0.43,0.92-0.75,1.6-0.93c0.67-0.19,1.53-0.28,2.57-0.28h8.52c0.62,0,1.16,0.09,1.61,0.26c0.46,0.17,0.85,0.39,1.17,0.64
			c0.32,0.25,0.59,0.52,0.78,0.81c0.2,0.29,0.34,0.55,0.44,0.78l-2.07,2.17c-0.16-0.33-0.4-0.63-0.71-0.9
			c-0.31-0.27-0.79-0.41-1.44-0.41h-8.27c-0.76,0-1.29,0.15-1.56,0.44c-0.28,0.3-0.41,0.86-0.41,1.7v5.46c0,0.59,0.03,1.06,0.09,1.4
			c0.06,0.34,0.16,0.61,0.32,0.8c0.15,0.19,0.36,0.31,0.61,0.37c0.25,0.06,0.57,0.09,0.96,0.09h7.64c0.93,0,1.57-0.14,1.93-0.41
			c0.36-0.27,0.54-0.67,0.54-1.19v-2.17h-6.3v-2.76h9.4v9.84H44.46z"/>
		<path class="st0" d="M50.07,53.11V36.18H66.2v3.35H53.36v3.74h12.47V46H53.36v3.79H66.2v3.32H50.07z"/>
		<path class="st0" d="M83.75,53.11L71.91,40.63v12.47h-3.15V36.18h3.54l11.52,12.25V36.18H87v16.93H83.75z"/>
		<path class="st0" d="M95.05,53.11c-1.01,0-1.85-0.09-2.51-0.27c-0.67-0.18-1.2-0.48-1.6-0.9c-0.4-0.42-0.68-0.98-0.85-1.69
			c-0.17-0.71-0.26-1.58-0.26-2.63v-5.95c0-1.05,0.09-1.93,0.26-2.63c0.17-0.7,0.46-1.27,0.85-1.7c0.4-0.43,0.93-0.73,1.6-0.9
			c0.67-0.17,1.51-0.26,2.51-0.26h9.42c0.62,0,1.16,0.09,1.62,0.26c0.46,0.17,0.86,0.39,1.18,0.64c0.33,0.25,0.59,0.52,0.78,0.81
			c0.2,0.29,0.34,0.55,0.44,0.78l-2.1,2.17c-0.15-0.33-0.38-0.63-0.71-0.9c-0.33-0.27-0.81-0.41-1.44-0.41h-9.18
			c-0.73,0-1.24,0.16-1.54,0.47c-0.29,0.31-0.44,0.87-0.44,1.67v5.98c0,0.36,0.02,0.67,0.07,0.93c0.05,0.26,0.14,0.48,0.28,0.66
			c0.14,0.18,0.34,0.32,0.6,0.41c0.26,0.09,0.6,0.14,1.03,0.14h9.3c0.65,0,1.13-0.14,1.44-0.41c0.31-0.27,0.54-0.57,0.68-0.9
			l2.1,2.14c-0.1,0.23-0.24,0.49-0.44,0.77c-0.2,0.29-0.46,0.56-0.78,0.81c-0.33,0.25-0.72,0.47-1.18,0.64
			c-0.46,0.17-1,0.26-1.62,0.26H95.05z"/>
		<path class="st0" d="M116.65,53.11v-6.22l-7.91-10.7h3.81l5.86,7.92l5.81-7.92h3.83l-8.1,10.7v6.22H116.65z"/>
	</g>
	<path class="st0" d="M61.62,12.32v4.21H71.9v3.31c0,0.8-0.29,1.41-0.88,1.82c-0.58,0.41-1.63,0.62-3.15,0.62H55.41
		c-0.64,0-1.16-0.04-1.57-0.13c-0.41-0.09-0.74-0.28-1-0.56c-0.25-0.29-0.42-0.7-0.52-1.22c-0.09-0.53-0.14-1.24-0.14-2.14v-8.04
		c0,0-3.75,0.32-5.34,2.14v6.65c0,1.63,0.13,2.98,0.38,4.04c0.25,1.07,0.7,1.92,1.33,2.58c0.64,0.65,1.51,1.11,2.61,1.37
		c1.1,0.26,2.5,0.39,4.2,0.39H67c0.77,0,1.46-0.09,2.07-0.28c0.61-0.19,1.13-0.43,1.57-0.73c0.44-0.3,0.8-0.64,1.08-1.02
		c0.28-0.38,0.46-0.75,0.54-1.13l0.16,3.16h4.54V12.32H61.62z"/>
	<path class="st0" d="M68.2,2.76c0.08,1.26,1.11,2.27,2.39,2.27c1.32,0,2.39-1.08,2.39-2.41c0-1.33-1.07-2.41-2.39-2.41
		c-0.54,0-1.05,0.19-1.45,0.49c-18.23-2.5-22.29,5.3-22.29,5.3l-0.02,0.64C51.25,1.7,65.16,2.51,68.2,2.76z M70.58,1.57
		c0.57,0,1.03,0.46,1.03,1.04c0,0.57-0.46,1.04-1.03,1.04c-0.57,0-1.03-0.46-1.03-1.04C69.55,2.04,70.01,1.57,70.58,1.57z"/>
	<path class="st0" d="M61.17,7.15C61.42,8.21,62.43,9,63.56,9c1.32,0,2.43-1.08,2.43-2.41s-1.04-2.41-2.36-2.41
		c-0.73,0-1.52,0.33-1.96,0.84c-2.07-0.03-11.2,0.05-14.85,3.68v1.27C46.83,9.96,51.48,6.37,61.17,7.15z M63.63,5.54
		c0.57,0,1.04,0.47,1.04,1.04c0,0.58-0.46,1.04-1.04,1.04S62.6,7.16,62.6,6.59C62.6,6.01,63.06,5.54,63.63,5.54z"/>
	<g>
		<path class="st0" d="M2.87,59.42l2.84,6.53h-0.8L4.1,64.02H1.66l-0.81,1.93h-0.8L2.87,59.42z M2.87,61.07l-0.99,2.31h1.98
			L2.87,61.07z"/>
		<path class="st0" d="M9.63,62.71h2.57v0.21c0,0.99-0.28,1.77-0.83,2.34c-0.56,0.57-1.32,0.86-2.28,0.86
			c-0.29,0-0.57-0.03-0.84-0.09c-0.27-0.06-0.51-0.15-0.73-0.27C7,65.47,6.61,65.08,6.33,64.58c-0.28-0.5-0.42-1.07-0.42-1.7
			c0-0.52,0.08-1,0.25-1.42c0.17-0.42,0.42-0.79,0.75-1.11c0.28-0.27,0.61-0.47,0.98-0.61c0.37-0.14,0.78-0.21,1.23-0.21
			c0.6,0,1.12,0.11,1.56,0.33c0.44,0.22,0.8,0.55,1.09,0.99l-0.62,0.5c-0.22-0.38-0.5-0.67-0.84-0.86C9.99,60.3,9.6,60.2,9.16,60.2
			c-0.72,0-1.31,0.25-1.76,0.74c-0.45,0.49-0.68,1.14-0.68,1.93c0,0.75,0.23,1.36,0.69,1.85c0.46,0.48,1.04,0.72,1.75,0.72
			c0.62,0,1.14-0.19,1.56-0.57c0.42-0.38,0.65-0.88,0.69-1.49H9.63V62.71z"/>
		<path class="st0" d="M13.3,65.95v-6.28h3.29v0.68h-2.55v1.8h2.55v0.7h-2.55v2.41h2.55v0.7H13.3z"/>
		<path class="st0" d="M17.84,65.95v-6.53l4.56,5.02v-4.77h0.71v6.53l-4.56-4.97v4.72H17.84z"/>
		<path class="st0" d="M29.66,61.17c-0.3-0.33-0.62-0.57-0.95-0.72c-0.34-0.16-0.71-0.23-1.12-0.23c-0.33,0-0.65,0.07-0.96,0.2
			c-0.31,0.13-0.59,0.32-0.82,0.56c-0.24,0.25-0.42,0.53-0.54,0.83c-0.12,0.31-0.18,0.65-0.18,1.02c0,0.29,0.04,0.56,0.11,0.81
			c0.07,0.25,0.18,0.47,0.32,0.68c0.25,0.36,0.56,0.63,0.92,0.83c0.36,0.19,0.76,0.29,1.18,0.29c0.4,0,0.77-0.08,1.11-0.25
			c0.34-0.17,0.65-0.41,0.93-0.74v0.99c-0.31,0.23-0.64,0.4-1,0.51c-0.36,0.12-0.72,0.17-1.1,0.17c-0.33,0-0.65-0.05-0.96-0.15
			c-0.31-0.1-0.6-0.24-0.88-0.43c-0.45-0.32-0.8-0.71-1.04-1.17c-0.24-0.46-0.36-0.97-0.36-1.53c0-0.48,0.08-0.92,0.24-1.32
			c0.16-0.4,0.41-0.76,0.73-1.08c0.32-0.31,0.67-0.54,1.06-0.69c0.39-0.15,0.81-0.23,1.26-0.23c0.36,0,0.71,0.06,1.05,0.17
			c0.34,0.11,0.67,0.28,1,0.51V61.17z"/>
		<path class="st0" d="M30.92,65.95v-6.28h3.29v0.68h-2.55v1.8h2.55v0.7h-2.55v2.41h2.55v0.7H30.92z"/>
		<path class="st0" d="M38.04,65.95v-6.28h1.2c0.89,0,1.51,0.05,1.87,0.14c0.36,0.09,0.68,0.24,0.95,0.45
			c0.36,0.28,0.63,0.63,0.81,1.06c0.18,0.43,0.28,0.93,0.28,1.49c0,0.56-0.09,1.06-0.27,1.49c-0.18,0.43-0.45,0.78-0.82,1.06
			c-0.27,0.21-0.58,0.36-0.93,0.45c-0.35,0.09-0.89,0.14-1.62,0.14h-0.27H38.04z M38.79,65.25h0.47c0.77,0,1.3-0.03,1.59-0.1
			c0.3-0.07,0.54-0.18,0.74-0.35c0.26-0.21,0.45-0.49,0.58-0.83c0.13-0.34,0.2-0.73,0.2-1.17c0-0.44-0.07-0.83-0.2-1.16
			c-0.13-0.33-0.33-0.61-0.59-0.83c-0.2-0.17-0.44-0.28-0.75-0.35c-0.3-0.07-0.83-0.11-1.58-0.11h-0.47V65.25z"/>
		<path class="st0" d="M44.37,65.95v-6.28h0.74v6.28H44.37z"/>
		<path class="st0" d="M50.05,62.71h2.57v0.21c0,0.99-0.28,1.77-0.83,2.34c-0.56,0.57-1.32,0.86-2.28,0.86
			c-0.29,0-0.57-0.03-0.84-0.09c-0.27-0.06-0.51-0.15-0.73-0.27c-0.51-0.28-0.91-0.67-1.18-1.17c-0.28-0.5-0.42-1.07-0.42-1.7
			c0-0.52,0.08-1,0.25-1.42c0.17-0.42,0.42-0.79,0.75-1.11c0.28-0.27,0.61-0.47,0.98-0.61c0.37-0.14,0.78-0.21,1.23-0.21
			c0.6,0,1.12,0.11,1.56,0.33c0.44,0.22,0.8,0.55,1.09,0.99l-0.62,0.5c-0.22-0.38-0.5-0.67-0.84-0.86
			c-0.33-0.19-0.72-0.29-1.17-0.29c-0.72,0-1.31,0.25-1.76,0.74c-0.45,0.49-0.68,1.14-0.68,1.93c0,0.75,0.23,1.36,0.69,1.85
			c0.46,0.48,1.04,0.72,1.75,0.72c0.62,0,1.14-0.19,1.56-0.57c0.42-0.38,0.65-0.88,0.69-1.49h-1.78V62.71z"/>
		<path class="st0" d="M53.72,65.95v-6.28h0.74v6.28H53.72z"/>
		<path class="st0" d="M57.06,65.95v-5.57H55.3v-0.71h4.27v0.71h-1.75v5.57H57.06z"/>
		<path class="st0" d="M61.73,59.42l2.84,6.53h-0.8l-0.81-1.93h-2.44l-0.81,1.93h-0.8L61.73,59.42z M61.73,61.07l-0.99,2.31h1.98
			L61.73,61.07z"/>
		<path class="st0" d="M65.21,65.95v-6.28h0.74v5.57h2.35v0.71H65.21z"/>
		<path class="st0" d="M69.18,65.95v-6.28h3.29v0.68h-2.55v1.8h2.55v0.7h-2.55v2.41h2.55v0.7H69.18z"/>
		<path class="st0" d="M79.2,66.2l-1.94-4.52l-0.78,4.27h-0.72l1.26-6.53l2.18,5.2l2.18-5.2l1.26,6.53h-0.72l-0.79-4.27L79.2,66.2z"
			/>
		<path class="st0" d="M85.58,59.42l2.84,6.53h-0.8l-0.81-1.93h-2.44l-0.81,1.93h-0.8L85.58,59.42z M85.58,61.07l-0.99,2.31h1.98
			L85.58,61.07z"/>
		<path class="st0" d="M89.06,65.95v-6.28h1.46c0.42,0,0.72,0.02,0.92,0.07c0.19,0.05,0.37,0.13,0.51,0.24
			c0.18,0.15,0.33,0.34,0.43,0.59c0.1,0.24,0.15,0.52,0.15,0.81c0,0.52-0.14,0.91-0.43,1.17c-0.29,0.27-0.7,0.4-1.25,0.4h-0.13
			l2.38,3h-0.94l-2.27-3h-0.11v3H89.06z M89.78,60.3v2.1h0.57c0.58,0,0.97-0.08,1.16-0.23c0.2-0.15,0.29-0.41,0.29-0.79
			c0-0.4-0.1-0.69-0.3-0.85c-0.2-0.16-0.59-0.24-1.15-0.24H89.78z"/>
		<path class="st0" d="M93.72,65.95v-6.28h0.73v2.79l2.62-2.79h0.89l-2.67,2.83l2.94,3.46h-0.96l-2.81-3.38v3.38H93.72z"/>
		<path class="st0" d="M98.88,65.95v-6.28h3.29v0.68h-2.55v1.8h2.55v0.7h-2.55v2.41h2.55v0.7H98.88z"/>
		<path class="st0" d="M104.51,65.95v-5.57h-1.76v-0.71h4.27v0.71h-1.75v5.57H104.51z"/>
		<path class="st0" d="M107.85,65.95v-6.28h0.74v6.28H107.85z"/>
		<path class="st0" d="M110.1,65.95v-6.53l4.56,5.02v-4.77h0.71v6.53l-4.56-4.97v4.72H110.1z"/>
		<path class="st0" d="M120.28,62.71h2.57v0.21c0,0.99-0.28,1.77-0.83,2.34c-0.56,0.57-1.32,0.86-2.28,0.86
			c-0.29,0-0.57-0.03-0.84-0.09c-0.27-0.06-0.51-0.15-0.73-0.27c-0.51-0.28-0.91-0.67-1.18-1.17c-0.28-0.5-0.42-1.07-0.42-1.7
			c0-0.52,0.08-1,0.25-1.42c0.17-0.42,0.42-0.79,0.75-1.11c0.28-0.27,0.61-0.47,0.98-0.61c0.37-0.14,0.78-0.21,1.23-0.21
			c0.6,0,1.12,0.11,1.56,0.33c0.44,0.22,0.8,0.55,1.09,0.99l-0.62,0.5c-0.22-0.38-0.5-0.67-0.84-0.86
			c-0.33-0.19-0.72-0.29-1.17-0.29c-0.72,0-1.31,0.25-1.76,0.74c-0.45,0.49-0.68,1.14-0.68,1.93c0,0.75,0.23,1.36,0.69,1.85
			c0.46,0.48,1.04,0.72,1.75,0.72c0.62,0,1.14-0.19,1.56-0.57c0.42-0.38,0.65-0.88,0.69-1.49h-1.78V62.71z"/>
	</g>
</g>
</svg>
